%YAML 1.1
%TAG !u! tag:unity3d.com,2011:
--- !u!114 &11400000
MonoBehaviour:
  m_ObjectHideFlags: 0
  m_CorrespondingSourceObject: {fileID: 0}
  m_PrefabInstance: {fileID: 0}
  m_PrefabAsset: {fileID: 0}
  m_GameObject: {fileID: 0}
  m_Enabled: 1
  m_EditorHideFlags: 0
  m_Script: {fileID: 11500000, guid: 0888f061d654e9c43a007bad4144b392, type: 3}
  m_Name: Noise_Flat
  m_EditorClassIdentifier: 
  Scale: 1
  Octaves: 0
  Lacunarity: 0
  Persistence: 0
