%YAML 1.1
%TAG !u! tag:unity3d.com,2011:
--- !u!114 &11400000
MonoBehaviour:
  m_ObjectHideFlags: 0
  m_CorrespondingSourceObject: {fileID: 0}
  m_PrefabInstance: {fileID: 0}
  m_PrefabAsset: {fileID: 0}
  m_GameObject: {fileID: 0}
  m_Enabled: 1
  m_EditorHideFlags: 0
  m_Script: {fileID: 11500000, guid: 03a318da16672e84694218fca4f4bc92, type: 3}
  m_Name: WoddenSword
  m_EditorClassIdentifier: 
  Name: Wodden Sword
  Code: WoddenSword
  Weight: 3
  Type: 3
  Image: {fileID: 1820374203553714491, guid: 24c7da1ec3685fe42ab813f751bdbec7, type: 3}
  Model: {fileID: -6692743545704626728, guid: 192af0d3088ab0c41ad1b0cb0a2c808b, type: 3}
  Materials:
  - {fileID: -3682680078620367399, guid: 192af0d3088ab0c41ad1b0cb0a2c808b, type: 3}
  - {fileID: -2483568943183998929, guid: 192af0d3088ab0c41ad1b0cb0a2c808b, type: 3}
  IsStackable: 0
  MaxStack: 60
